<svg width="23" height="25" viewBox="0 0 23 25" fill="none" xmlns="http://www.w3.org/2000/svg">
<path d="M22.7042 24.3773L20.8362 6.97385C20.8051 6.69365 20.556 6.47572 20.2758 6.47572H16.8201V5.41719C16.8201 2.42839 14.3917 0 11.4029 0C8.41407 0 5.98568 2.42839 5.98568 5.41719V6.47572H2.43649C2.15629 6.47572 1.90723 6.69365 1.87609 6.97385L0.00809868 24.3773C-0.0230346 24.533 0.0392319 24.6887 0.132632 24.8132C0.226031 24.9377 0.381698 25 0.537364 25H22.175C22.3306 25 22.4863 24.9377 22.5797 24.8132C22.6731 24.6887 22.7354 24.533 22.7042 24.3773ZM16.2597 9.62017C16.5399 9.62017 16.7578 9.83811 16.7578 10.1183C16.7578 10.3985 16.5399 10.6164 16.2597 10.6164C15.9795 10.6164 15.7615 10.3985 15.7615 10.1183C15.7615 9.83811 15.9795 9.62017 16.2597 9.62017ZM7.10648 5.41719C7.10648 3.05106 9.03674 1.1208 11.4029 1.1208C13.769 1.1208 15.6993 3.05106 15.6993 5.41719V6.47572H7.10648V5.41719ZM6.54608 9.62017C6.82628 9.62017 7.04421 9.83811 7.04421 10.1183C7.04421 10.3985 6.82628 10.6164 6.54608 10.6164C6.26588 10.6164 6.04795 10.3985 6.04795 10.1183C6.04795 9.83811 6.26588 9.62017 6.54608 9.62017ZM1.19116 23.8481L2.93462 7.56538H5.98568V8.59278C5.36302 8.81071 4.92715 9.40224 4.92715 10.0872C4.92715 10.9589 5.64322 11.675 6.51495 11.675C7.38668 11.675 8.10274 10.9589 8.10274 10.0872C8.10274 9.40224 7.66688 8.81071 7.04421 8.59278V7.56538H15.637V8.59278C15.0143 8.81071 14.5785 9.40224 14.5785 10.0872C14.5785 10.9589 15.2945 11.675 16.1663 11.675C17.038 11.675 17.754 10.9589 17.754 10.0872C17.754 9.40224 17.3182 8.81071 16.6955 8.59278V7.56538H19.8711L21.6146 23.8481H1.19116Z" fill="white"/>
</svg>
