<svg width="38" height="38" viewBox="0 0 38 38" fill="none" xmlns="http://www.w3.org/2000/svg">
<line x1="11.7071" y1="17.2929" x2="18.7071" y2="24.2929" stroke="black" stroke-width="2"/>
<line x1="17.2601" y1="24.3273" x2="27.2601" y2="13.3273" stroke="black" stroke-width="2"/>
</svg>
