<svg width="29" height="29" viewBox="0 0 29 29" fill="none" xmlns="http://www.w3.org/2000/svg">
<line x1="2.22686" y1="27.0877" x2="27.5822" y2="1.73232" stroke="#959595" stroke-width="3.58579"/>
<line x1="2.26777" y1="1.73223" x2="27.6231" y2="27.0876" stroke="#959595" stroke-width="3.58579"/>
</svg>
