<svg width="13" height="13" viewBox="0 0 13 13" fill="none" xmlns="http://www.w3.org/2000/svg">
<line y1="6.5" x2="13" y2="6.5" stroke="black"/>
<line x1="6.5" y1="2.18557e-08" x2="6.5" y2="13" stroke="black"/>
</svg>
