<svg width="39" height="46" viewBox="0 0 39 46" fill="none" xmlns="http://www.w3.org/2000/svg">
<path d="M37.5 20.4019C39.5 21.5566 39.5 24.4434 37.5 25.5981L4.49999 44.6506C2.49999 45.8053 -5.97238e-06 44.362 -5.87143e-06 42.0526L-4.2058e-06 3.94744C-4.10486e-06 1.63804 2.5 0.194663 4.5 1.34936L37.5 20.4019Z" fill="#B2B2B2"/>
</svg>
