<svg width="39" height="37" viewBox="0 0 39 37" fill="none" xmlns="http://www.w3.org/2000/svg">
<g clip-path="url(#clip0)">
<g clip-path="url(#clip1)">
<path d="M32.4569 15.5266C32.5013 10.31 28.0583 5.52784 22.5528 4.86656C22.4433 4.85357 22.324 4.83381 22.1977 4.81289C21.9252 4.76774 21.6433 4.72131 21.3589 4.72131C20.2305 4.72131 19.9289 5.51394 19.8495 5.98667C19.7723 6.44629 19.8459 6.83227 20.0681 7.13436C20.4417 7.64247 21.0992 7.73268 21.6273 7.80495C21.7821 7.82633 21.9282 7.8462 22.0504 7.87367C26.9969 8.97896 28.6625 10.7167 29.4765 15.6211C29.4964 15.741 29.5054 15.8886 29.5149 16.0453C29.5504 16.6315 29.6244 17.8513 30.9357 17.8513H30.9358C31.045 17.8513 31.1623 17.8418 31.2845 17.8232C32.5056 17.6376 32.4673 16.5227 32.4489 15.987C32.4438 15.8361 32.4388 15.6934 32.4516 15.5985C32.455 15.5746 32.4567 15.5506 32.4569 15.5266Z" fill="black"/>
<path d="M21.0387 2.95173C21.1852 2.9623 21.3239 2.97241 21.4394 2.99011C29.562 4.23926 33.2975 8.08772 34.3327 16.2739C34.3503 16.4131 34.3531 16.5828 34.3559 16.7625C34.3663 17.4021 34.3875 18.7326 35.8164 18.7601L35.8608 18.7606C36.3089 18.7606 36.6653 18.6255 36.9203 18.3587C37.3651 17.8934 37.3341 17.2022 37.3091 16.6468C37.303 16.5105 37.2971 16.3822 37.2986 16.2698C37.4019 7.89743 30.1547 0.305422 21.7898 0.0230963C21.7551 0.0219472 21.722 0.0237857 21.6886 0.0284969C21.6722 0.0309099 21.6417 0.0338975 21.5896 0.0338975C21.5061 0.0338975 21.4035 0.0266584 21.2947 0.0193043C21.1631 0.0103416 21.014 0 20.8628 0C19.5307 0 19.2774 0.946832 19.245 1.51125C19.1703 2.81568 20.4322 2.90749 21.0387 2.95173Z" fill="black"/>
<path d="M33.9408 26.8541C33.7681 26.7222 33.5895 26.5857 33.4223 26.451C32.5355 25.7373 31.592 25.0795 30.6795 24.4432C30.4901 24.3113 30.3008 24.1793 30.1121 24.0469C28.9432 23.2259 27.8924 22.8269 26.8996 22.8269C25.5625 22.8269 24.3966 23.5658 23.4344 25.0227C23.0081 25.6686 22.4909 25.9826 21.8535 25.9826C21.4766 25.9826 21.0483 25.8751 20.5808 25.6628C16.8081 23.952 14.1141 21.3289 12.5735 17.8664C11.8288 16.1929 12.0702 15.099 13.3808 14.2087C14.1251 13.7036 15.5104 12.7632 15.4123 10.9623C15.3012 8.91735 10.789 2.7642 8.88787 2.06534C8.08295 1.76934 7.23723 1.76658 6.36968 2.05845C4.18416 2.79316 2.61579 4.08345 1.83374 5.78959C1.07799 7.43815 1.11212 9.37388 1.93244 11.3875C4.30389 17.2094 7.63803 22.2853 11.8426 26.474C15.9581 30.5743 21.0164 33.933 26.8769 36.4565C27.4051 36.6838 27.9592 36.8078 28.3638 36.8982C28.5017 36.9292 28.6207 36.9557 28.7075 36.9794C28.7551 36.9924 28.8043 36.9994 28.8536 36.9999L28.8999 37.0001C28.9 37.0001 28.8999 37.0001 28.9002 37.0001C31.6565 37.0001 34.9662 34.4814 35.9827 31.6098C36.8732 29.0955 35.2473 27.8526 33.9408 26.8541Z" fill="black"/>
<path d="M22.2579 9.60202C21.7859 9.61397 20.8038 9.63833 20.4592 10.6386C20.298 11.106 20.3173 11.5119 20.5167 11.8449C20.8092 12.3335 21.3697 12.4832 21.8796 12.5654C23.7285 12.862 24.6781 13.8845 24.8681 15.7827C24.9563 16.6679 25.5524 17.286 26.3176 17.286H26.3177C26.3743 17.286 26.4321 17.2826 26.4896 17.2756C27.41 17.1661 27.8562 16.4899 27.8159 15.2659C27.8306 13.9885 27.1621 12.5382 26.0251 11.3831C24.8842 10.2244 23.5088 9.5718 22.2579 9.60202Z" fill="black"/>
</g>
</g>
<defs>
<clipPath id="clip0">
<rect width="38.1938" height="37" fill="white" transform="translate(0.806152)"/>
</clipPath>
<clipPath id="clip1">
<rect width="37" height="37" fill="white" transform="translate(0.806152)"/>
</clipPath>
</defs>
</svg>
