<svg width="26" height="44" viewBox="0 0 26 44" fill="none" xmlns="http://www.w3.org/2000/svg">
<line y1="-2.5" x2="31.1127" y2="-2.5" transform="matrix(-0.707107 0.707107 0.707107 0.707107 26 22.0002)" stroke="white" stroke-width="5"/>
<line x1="24.2322" y1="23.7678" x2="2.23223" y2="1.76777" stroke="white" stroke-width="5"/>
</svg>
